<?xml version="1.0" encoding="utf-8"?>
<!-- Generator: Adobe Illustrator 24.0.3, SVG Export Plug-In . SVG Version: 6.00 Build 0)  -->
<svg version="1.1" id="Ebene_1" xmlns="http://www.w3.org/2000/svg" xmlns:xlink="http://www.w3.org/1999/xlink" x="0px" y="0px"
	 viewBox="0 0 50 50" style="enable-background:new 0 0 50 50;" xml:space="preserve">
<style type="text/css">
	.st0{fill:#FFFFFF;}
	.st1{fill:#19232D;}
</style>
<circle class="st0" cx="25" cy="25" r="25"/>
<g>
	<g>
		<path class="st1" d="M32.7,7.5h-4.5c-5.1,0-8.4,3.4-8.4,8.6v4h-4.6c-0.4,0-0.7,0.4-0.7,0.7v5.8c0,0.4,0.4,0.7,0.7,0.7h4.6v14.5
			c0,0.4,0.4,0.7,0.7,0.7h5.9c0.4,0,0.7-0.4,0.7-0.7V27.2h5.3c0.4,0,0.7-0.4,0.7-0.7v-5.8c0-0.2-0.1-0.4-0.2-0.5
			C33,20,32.7,20,32.5,20h-5.3v-3.3c0-1.6,0.4-2.4,2.5-2.4h3.1c0.4,0,0.7-0.4,0.7-0.7V8.2C33.4,7.8,33,7.5,32.7,7.5z"/>
	</g>
</g>
</svg>
