<?xml version="1.0" encoding="utf-8"?>
<!-- Generator: Adobe Illustrator 24.0.3, SVG Export Plug-In . SVG Version: 6.00 Build 0)  -->
<svg version="1.1" id="Ebene_1" xmlns="http://www.w3.org/2000/svg" xmlns:xlink="http://www.w3.org/1999/xlink" x="0px" y="0px"
	 viewBox="0 0 176 176" style="enable-background:new 0 0 176 176;" xml:space="preserve">
<style type="text/css">
	.st0{fill:#FFFFFF;}
	.st1{fill:#18232D;}
</style>
<g>
	<path class="st0" d="M122.53,71.26L97.09,57.29c-0.38-0.21-0.85-0.21-1.23,0l-9.59,5.27c-0.2,0.05-0.39,0.16-0.55,0.3l-15.31,8.4
		c-0.41,0.22-0.66,0.65-0.66,1.12v16.9c-2.58,0.81-4.95,2.23-6.92,4.2c-5.13,5.13-6.44,12.95-3.25,19.46
		c0.31,0.63,1.07,0.9,1.71,0.59c0.63-0.31,0.9-1.07,0.59-1.71c-2.7-5.53-1.59-12.18,2.76-16.54c2.72-2.72,6.35-4.23,10.2-4.23
		c3.85,0,7.48,1.5,10.2,4.23c2.72,2.72,4.23,6.35,4.23,10.2c0,3.85-1.5,7.48-4.23,10.2c-4.36,4.36-11,5.47-16.54,2.76
		c-0.63-0.31-1.4-0.05-1.71,0.59c-0.31,0.63-0.05,1.4,0.59,1.71c2.37,1.16,4.92,1.72,7.44,1.72c4.41,0,8.76-1.72,12.02-4.98
		c1.49-1.49,2.68-3.22,3.51-5.09l5.5,3.02c0.19,0.11,0.4,0.16,0.61,0.16s0.42-0.05,0.61-0.16l25.44-13.97
		c0.41-0.22,0.66-0.65,0.66-1.12v-8.87c0-0.7-0.57-1.28-1.28-1.28c-0.7,0-1.28,0.57-1.28,1.28v8.11l-22.89,12.57V87.11l7.55-4.15
		v6.58c0,0.45,0.24,0.87,0.63,1.1c0.2,0.12,0.42,0.18,0.65,0.18c0.21,0,0.42-0.05,0.62-0.16l5.45-3c0.41-0.22,0.66-0.65,0.66-1.12
		v-7.97l7.33-4.02v6.71c0,0.7,0.57,1.28,1.28,1.28c0.7,0,1.28-0.57,1.28-1.28v-8.87C123.2,71.92,122.94,71.49,122.53,71.26z
		 M96.48,59.87l22.79,12.52l-7.19,3.95L89.29,63.82L96.48,59.87z M96.48,84.9L73.68,72.38l7.45-4.09l22.79,12.52L96.48,84.9z
		 M106.58,79.35L83.79,66.83l2.85-1.56l22.79,12.52L106.58,79.35z M86.85,93.48c-3.21-3.21-7.47-4.97-12.01-4.97
		c-0.86,0-1.71,0.06-2.54,0.19V74.54l22.9,12.57v25.03l-3.97-2.18c0.39-1.44,0.59-2.94,0.59-4.48
		C91.82,100.95,90.06,96.69,86.85,93.48z M110.76,85.78l-2.9,1.6v-5.82l2.9-1.59V85.78z"/>
	<path class="st0" d="M121.92,85.07c-0.34,0-0.66,0.14-0.9,0.37s-0.37,0.57-0.37,0.9c0,0.34,0.14,0.66,0.37,0.9
		c0.24,0.24,0.57,0.37,0.9,0.37c0.34,0,0.66-0.14,0.9-0.37c0.24-0.24,0.37-0.57,0.37-0.9c0-0.34-0.14-0.66-0.37-0.9
		S122.26,85.07,121.92,85.07z"/>
	<path class="st0" d="M70.55,106.76c0.33,0,0.65-0.12,0.9-0.37c0.5-0.5,0.5-1.31,0-1.8l-0.88-0.88h7.54c1.83,0,3.32,1.49,3.32,3.32
		c0,1.83-1.49,3.32-3.32,3.32h-4.47c-0.7,0-1.28,0.57-1.28,1.28c0,0.7,0.57,1.28,1.28,1.28h4.47c3.24,0,5.87-2.63,5.87-5.87
		s-2.63-5.87-5.87-5.87h-7.54l0.88-0.88c0.5-0.5,0.5-1.31,0-1.8c-0.5-0.5-1.31-0.5-1.8,0l-3.06,3.06c-0.5,0.5-0.5,1.31,0,1.8
		l3.06,3.06C69.9,106.64,70.23,106.76,70.55,106.76z"/>
	<path class="st0" d="M63.74,117.87c-0.36,0-0.72-0.15-0.97-0.45l0,0c-0.45-0.54-0.38-1.34,0.16-1.8c0.54-0.45,1.34-0.38,1.8,0.16
		c0.45,0.54,0.38,1.35-0.15,1.8C64.32,117.77,64.03,117.87,63.74,117.87z"/>
</g>
<circle class="st1" cx="90.53" cy="89.8" r="78.16"/>
<g>
	<g>
		<g>
			<path class="st0" d="M111.53,114.81l-2.52-7.55c-0.88-2.64-3.12-4.58-5.86-5.08l-7.27-1.32v-0.56c1.26-0.73,2.37-1.72,3.24-2.88
				h2.2c1.8,0,3.26-1.46,3.26-3.26V81.1c0-7.79-6.34-14.14-14.14-14.14S76.32,73.31,76.32,81.1v7.61c0,2.1,1.49,3.85,3.47,4.26
				c0.61,3.13,2.56,5.77,5.23,7.32v0.56l-7.27,1.32c-2.73,0.5-4.98,2.44-5.86,5.08l-0.43,1.31l-3.7-3.7c-0.42-0.42-0.42-1.11,0-1.54
				l4.3-4.29l-8.06-8.06l-4.85,4.85c-1.44,1.44-2.23,3.35-2.23,5.38s0.79,3.94,2.23,5.38l14.7,14.7c1.44,1.44,3.35,2.23,5.38,2.23
				c2.03,0,3.94-0.79,5.35-2.2l5.3-4.85l-1.65-1.65H111.53z M102.41,94.15c0,0.6-0.49,1.09-1.09,1.09h-0.91
				c0.32-0.72,0.55-1.48,0.71-2.27c0.47-0.1,0.89-0.28,1.29-0.51V94.15z M101.33,90.59v-3.75c0.65,0.38,1.09,1.07,1.09,1.87
				S101.97,90.21,101.33,90.59z M79.58,90.59c-0.65-0.38-1.09-1.07-1.09-1.87s0.44-1.5,1.09-1.87V90.59z M79.58,83.28v1.24
				c-0.39,0.1-0.75,0.25-1.09,0.45V81.1c0-6.6,5.37-11.96,11.96-11.96s11.96,5.37,11.96,11.96v3.87c-0.34-0.2-0.7-0.35-1.09-0.45
				v-1.24h-1.09c-3.22,0-6.24-1.25-8.51-3.53l-1.27-1.27l-1.27,1.27c-2.27,2.27-5.3,3.53-8.51,3.53H79.58z M81.75,90.89v-5.48
				c3.27-0.25,6.31-1.59,8.7-3.86c2.39,2.27,5.43,3.62,8.7,3.86v5.48c0,1.59-0.43,3.07-1.18,4.35h-7.52v2.17h5.74
				c-1.53,1.35-3.54,2.17-5.74,2.17C85.66,99.59,81.75,95.69,81.75,90.89z M93.71,101.26v0.05l-3.26,3.26l-3.26-3.26v-0.05
				c1.03,0.32,2.13,0.5,3.26,0.5S92.68,101.59,93.71,101.26z M73.95,107.95c0.63-1.88,2.23-3.27,4.19-3.63l7.6-1.38l4.72,4.72
				l4.72-4.72l7.6,1.38c1.95,0.36,3.56,1.75,4.19,3.63l1.56,4.69H86.03l-4.24-4.24l-4.71,4.26c-0.41,0.41-1.13,0.41-1.54,0
				l-2.38-2.38L73.95,107.95z M63.98,94.04l4.99,4.99l-1.18,1.18l-4.99-4.99L63.98,94.04z M83.05,119.75
				c-1.03,1.02-2.39,1.59-3.84,1.59c-1.45,0-2.82-0.57-3.85-1.59l-14.7-14.7c-1.03-1.03-1.59-2.39-1.59-3.84
				c0-1.45,0.57-2.82,1.59-3.85l0.6-0.6l4.99,4.99l-0.04,0.04c-1.27,1.27-1.27,3.34,0,4.61l7.8,7.8c0.62,0.62,1.44,0.96,2.31,0.96
				c0.87,0,1.69-0.34,2.27-0.92l0.08-0.07l5.01,5.01L83.05,119.75z M85.28,117.7l-5-5l1.44-1.3l4.99,4.99L85.28,117.7z"/>
		</g>
	</g>
	<g>
		<g>
			<path class="st0" d="M120.9,56.09h-15.22c-1.8,0-3.26,1.46-3.26,3.26v8.7c0,1.8,1.46,3.26,3.26,3.26h2.9l-1.12,6.56l10.49-6.56
				h2.95c1.8,0,3.26-1.46,3.26-3.26v-8.7C124.16,57.55,122.7,56.09,120.9,56.09z M121.99,68.05c0,0.6-0.49,1.09-1.09,1.09h-3.57
				l-6.91,4.32l0.74-4.32h-5.48c-0.6,0-1.09-0.49-1.09-1.09v-8.7c0-0.6,0.49-1.09,1.09-1.09h15.22c0.6,0,1.09,0.49,1.09,1.09V68.05z
				"/>
		</g>
	</g>
	<g>
		<g>
			<rect x="106.76" y="60.44" class="st0" width="13.05" height="2.17"/>
		</g>
	</g>
	<g>
		<g>
			<rect x="106.76" y="64.79" class="st0" width="8.7" height="2.17"/>
		</g>
	</g>
	<g>
		<g>
			<rect x="117.64" y="64.79" class="st0" width="2.17" height="2.17"/>
		</g>
	</g>
	<g>
		<g>
			<path class="st0" d="M90.45,59.35c-14.21,0-26.45,9.83-29.63,23.54l-2.06-3.44l-1.86,1.12l3.82,6.37l6.37-3.82l-1.12-1.86
				l-2.95,1.77c3.08-12.54,14.36-21.5,27.43-21.5c2.86,0,5.68,0.42,8.38,1.26l0.64-2.08C96.56,59.81,93.53,59.35,90.45,59.35z"/>
		</g>
	</g>
	<g>
		<g>
			<path class="st0" d="M123.63,80.17l-6.37-3.82l-3.82,6.37l1.86,1.12l1.9-3.17c1,2.93,1.51,6,1.51,9.14
				c0,6.47-2.24,12.79-6.31,17.8l1.69,1.37c4.38-5.4,6.79-12.21,6.79-19.17c0-3.33-0.54-6.57-1.58-9.68l3.2,1.92L123.63,80.17z"/>
		</g>
	</g>
</g>
</svg>
